<?xml version="1.0" encoding="UTF-8"?>
<session version="1.0">
<refactoring accessors="true" comment="Delete element from project &apos;digital_clock&apos;&#x0A;- Original project: &apos;digital_clock&apos;&#x0A;- Original element: &apos;digital_clock/digital_clock&apos;" description="Delete element" element1="/&lt;digital_clock" elements="1" flags="589830" id="org.eclipse.jdt.ui.delete" resources="0" stamp="1570546155712" subPackages="false" version="1.0"/>
</session>